{
  "Version": "2012-10-17",
  "Statement": [
    {
      "Effect": "Allow",
      "Principal": {
        "Service": [
          "ecs.amazonaws.com",
          "ec2.amazonaws.com",
          "autoscaling.amazonaws.com",
          "application-autoscaling.amazonaws.com",
          "lambda.amazonaws.com",
          "ecs-tasks.amazonaws.com"
        ]
      },
      "Action": "sts:AssumeRole"
    }
  ]
}